{
  "resolution": "main",
  "tree": {
    "src": "https://raw.githubusercontent.com/DefinitelyTyped/DefinitelyTyped/0ec82661e516a875253d5803eb32a11f04450584/cordova-plugin-ble-central/index.d.ts",
    "raw": "registry:dt/cordova-plugin-ble-central/index#1.1.2+20161110152929",
    "typings": "https://raw.githubusercontent.com/DefinitelyTyped/DefinitelyTyped/0ec82661e516a875253d5803eb32a11f04450584/cordova-plugin-ble-central/index.d.ts"
  }
}
