{
  "globalDependencies": {
    "cordova-plugin-ble-central/index": "registry:dt/cordova-plugin-ble-central/index#1.1.2+20161110152929",
    "jquery": "registry:dt/jquery#1.10.0+20170310222111"
  },
  "dependencies": {
    "d3": "registry:npm/d3#3.0.0+20160723033700"
  }
}
